<svg xmlns="http://www.w3.org/2000/svg" width="184" height="184" viewBox="0 0 184 184">
  <g id="Group_1" data-name="Group 1" transform="translate(-524 -359)">
    <g id="Rectangle_15" data-name="Rectangle 15" transform="translate(524 359)" fill="#fff" stroke="#707070" stroke-width="1" stroke-dasharray="3">
      <rect width="184" height="184" rx="10" stroke="none"/>
      <rect x="0.5" y="0.5" width="183" height="183" rx="9.5" fill="none"/>
    </g>
    <g id="Thumbnail_Square" data-name="Thumbnail Square" transform="translate(221 -127)">
      <g id="rectangle-16" transform="translate(315 498)" fill="#e8e8e8" stroke="#c9caca" stroke-width="1">
        <rect width="160" height="160" stroke="none"/>
        <rect x="0.5" y="0.5" width="159" height="159" fill="none"/>
      </g>
      <g id="group-54" transform="translate(94.592 344.398)">
        <circle id="ellipse-9" cx="8.732" cy="8.732" r="8.732" transform="translate(292.796 213.224)" fill="#babcbc"/>
        <path id="path-8" d="M2704.857,324.356l29.851-37.8,34.04,37.8Z" transform="translate(-2454.449 -82.954)" fill="#f4f4f4"/>
        <path id="path-8-2" data-name="path-8" d="M2734.93,325.278,2774.6,296.04l32.366,29.239Z" transform="translate(-2457.375 -83.877)" fill="#fff"/>
        <line id="line-9" x2="17.558" transform="translate(292.919 245.938)" fill="none" stroke="#c7caca" stroke-width="1"/>
        <line id="line-9-2" data-name="line-9" x2="11.735" transform="translate(295.627 254.965)" fill="none" stroke="#c7caca" stroke-width="1"/>
        <line id="line-9-3" data-name="line-9" x2="14.444" transform="translate(294.724 250.451)" fill="none" stroke="#c7caca" stroke-width="1"/>
        <line id="line-9-4" data-name="line-9" x2="9.027" transform="translate(297.433 259.479)" fill="none" stroke="#c7caca" stroke-width="1"/>
        <line id="line-9-5" data-name="line-9" x2="4.514" transform="translate(299.238 263.992)" fill="none" stroke="#c7caca" stroke-width="1"/>
      </g>
    </g>
  </g>
</svg>
