<svg xmlns="http://www.w3.org/2000/svg" width="184" height="184" viewBox="0 0 184 184">
  <g id="Group_2" data-name="Group 2" transform="translate(-524 -359)">
    <g id="Rectangle_16" data-name="Rectangle 16" transform="translate(524 359)" fill="#fff" stroke="#707070" stroke-width="1" stroke-dasharray="3">
      <rect width="184" height="184" rx="10" stroke="none"/>
      <rect x="0.5" y="0.5" width="183" height="183" rx="9.5" fill="none"/>
    </g>
    <g id="Thumbnail_Square" data-name="Thumbnail Square" transform="translate(221 -127)">
      <g id="rectangle-16" transform="translate(315 498)" fill="#e8e8e8" stroke="#c9caca" stroke-width="1">
        <rect width="160" height="160" stroke="none"/>
        <rect x="0.5" y="0.5" width="159" height="159" fill="none"/>
      </g>
      <g id="group-59" transform="translate(114 -281)">
        <rect id="rectangle-21" width="97" height="54" rx="11" transform="translate(235 830)" fill="#ccc"/>
        <path id="path-2" d="M1355,480.875h19.672l-9.908,12.075Z" transform="translate(-203.875 2221.672) rotate(-90)" fill="#898989"/>
      </g>
    </g>
  </g>
</svg>
