<svg xmlns="http://www.w3.org/2000/svg" width="120" height="88" viewBox="0 0 120 88">
  <g id="Video" transform="translate(-71 -701.458)">
    <g id="rectangle-14" transform="translate(71 701.458)" fill="#e8e8e8" stroke="#c9caca" stroke-width="1">
      <rect width="120" height="88" stroke="none"/>
      <rect x="0.5" y="0.5" width="119" height="87" fill="none"/>
    </g>
    <g id="group-59" transform="translate(117.255 738.462)">
      <rect id="rectangle-21" width="28" height="14" rx="7" transform="translate(-0.256 -0.004)" fill="#ccc"/>
      <path id="path-2" d="M0,0H5.577L2.768,3.423Z" transform="translate(12.148 10.193) rotate(-90)" fill="#898989"/>
    </g>
  </g>
</svg>
